^D:\GC2A11小松蓮\C++\CPP_KADAI\課題16\X64\DEBUG\FIGURE.OBJ|D:\GC2A11小松蓮\C++\CPP_KADAI\課題16\X64\DEBUG\MAIN.OBJ|D:\GC2A11小松蓮\C++\CPP_KADAI\課題16\X64\DEBUG\SQUARE.OBJ|D:\GC2A11小松蓮\C++\CPP_KADAI\課題16\X64\DEBUG\TRIANGLE.OBJ
D:\GC2A11小松蓮\C++\CPP_KADAI\X64\DEBUG\課題16.EXE
D:\GC2A11小松蓮\C++\CPP_KADAI\X64\DEBUG\課題16.ILK
D:\GC2A11小松蓮\C++\CPP_KADAI\X64\DEBUG\課題16.PDB
