^D:\GC2A小松蓮\C++\CPP_KADAI\課題6\X64\DEBUG\CALCLATION.OBJ|D:\GC2A小松蓮\C++\CPP_KADAI\課題6\X64\DEBUG\MAIN.OBJ
D:\GC2A小松蓮\C++\CPP_KADAI\X64\DEBUG\課題6.ILK
D:\GC2A小松蓮\C++\CPP_KADAI\X64\DEBUG\課題6.EXE
D:\GC2A小松蓮\C++\CPP_KADAI\X64\DEBUG\課題6.PDB
