^D:\GC2A11小松蓮\C++\CPP_KADAI\課題14\FAT.CPP|D:\GC2A11小松蓮\C++\CPP_KADAI\課題14\MAIN.CPP
D:\GC2A11小松蓮\C++\CPP_KADAI\課題14\X64\DEBUG\VC142.PDB
D:\GC2A11小松蓮\C++\CPP_KADAI\課題14\X64\DEBUG\VC142.IDB
D:\GC2A11小松蓮\C++\CPP_KADAI\課題14\X64\DEBUG\FAT.OBJ
^D:\GC2A11小松蓮\C++\CPP_KADAI\課題14\FAT.CPP
D:\GC2A11小松蓮\C++\CPP_KADAI\課題14\X64\DEBUG\FAT.OBJ
