^D:\GC2A11\C++KADAI\CPP_KADAI\課題10\DEBUG\CIRCLE.OBJ|D:\GC2A11\C++KADAI\CPP_KADAI\課題10\DEBUG\MAIN.OBJ
/OUT:"D:\GC2A11\C++KADAI\CPP_KADAI\DEBUG\課題10.EXE" /INCREMENTAL /NOLOGO KERNEL32.LIB USER32.LIB GDI32.LIB WINSPOOL.LIB COMDLG32.LIB ADVAPI32.LIB SHELL32.LIB OLE32.LIB OLEAUT32.LIB UUID.LIB ODBC32.LIB ODBCCP32.LIB /MANIFEST /MANIFESTUAC:"level='asInvoker' uiAccess='false'" /manifest:embed /DEBUG:FASTLINK /PDB:"D:\GC2A11\C++KADAI\CPP_KADAI\DEBUG\課題10.PDB" /SUBSYSTEM:CONSOLE /TLBID:1 /DYNAMICBASE /NXCOMPAT /IMPLIB:"D:\GC2A11\C++KADAI\CPP_KADAI\DEBUG\課題10.LIB" /MACHINE:X86 DEBUG\CIRCLE.OBJ
DEBUG\MAIN.OBJ
